<?xml version="1.0" encoding="UTF-8" standalone="no"?>
<svg id="svg5500" xmlns="http://www.w3.org/2000/svg" height="32" viewBox="0 0 8.4666665 8.4666669" width="32" version="1.1">
 <g id="g4760" transform="translate(0 -.5202)">
  <path id="path9977" style="stroke-linejoin:round;stroke:#000;stroke-width:.2801;stroke-linecap:round;fill:#FFFFE0;fill-opacity:1" d="m0.244 6.641c-0.3003 0.5193 0.07028 1.17 0.6701 1.176h6.638c0.6-0.006 0.971-0.657 0.67-1.176l-3.319-5.5c-0.3051-0.5029-1.035-0.5029-1.34 0z"/>
  <path id="path4751" style="opacity:.3" d="m4.811 30.58 8.656 2.37c1.153 0.3039 3.911 0.3039 5.064 0l8.752-2.37z" transform="scale(.2646)"/>
 </g>
</svg>
